Hw_4
…
Question 2

news_stories_parsed = fromJSON(rawToChar(news_stories$content))

articles = as_tibble(news_stories_parsed$articles)

articles

# A tibble: 100 × 8
   source$id $name author title description url   urlToImage publishedAt content
   <chr>     <chr> <chr>  <chr> <chr>       <chr> <chr>      <chr>       <chr>  
 1 wired     Wired Matt … Iran… "Iran is l… http… "https://… 2025-06-18… "Alima…
 2 wired     Wired Andre… Trut… "The socia… http… "https://… 2025-06-22… "Truth…
 3 wired     Wired Lily … Isra… "Plus: Ukr… http… ""         2025-06-21… "Amid …
 4 wired     Wired Molly… Inte… "“Violence… http… "https://… 2025-06-23… "The i…
 5 wired     Wired Steve… What… "Meta CTO … http… "https://… 2025-06-20… "When …
 6 the-verge The … Tina … Iran… "In a purp… http… "https://… 2025-06-17… "The g…
 7 <NA>      Gizm… Luc O… Trum… "The U.S. … http… "https://… 2025-06-22… "It wa…
 8 <NA>      Gizm… Matt … Sili… "The tech … http… "https://… 2025-06-18… "The U…
 9 <NA>      BBC … <NA>   Isra… "Israel's … http… "https://… 2025-06-16… "Jonat…
10 <NA>      BBC … <NA>   Wher… "As the mi… http… "https://… 2025-06-16… "On Fr…
# ℹ 90 more rows
…
  news_stories_parsed = fromJSON(rawToChar(news_stories$content))

  if(!is.null(news_stories_parsed$articles)){
    return(as_tibble(news_stories_parsed$articles))
  } else{
   return("No Articles Found") 
  }
  
}

gamestop_news = query_news("gamestop", "2025-06-01", api_key)

gamestop_news

# A tibble: 100 × 8
   source$id $name author title description url   urlToImage publishedAt content
   <chr>     <chr> <chr>  <chr> <chr>       <chr> <chr>      <chr>       <chr>  
 1 the-verge The … David… A ni… "I'm stand… http… https://p… 2025-06-05… "Body …
 2 the-verge The … Brand… The … "Amazon’s … http… https://p… 2025-06-20… "Amazo…
 3 <NA>      Gizm… Kyle … Targ… "Check to … http… https://g… 2025-06-03… "The S…
 4 <NA>      Gizm… James… Did … "Maybe ord… http… https://g… 2025-06-05… "When …
 5 <NA>      Gizm… James… Some… "There's o… http… https://g… 2025-06-18… "The S…
 6 <NA>      Gizm… Kyle … Nint… "The Switc… http… https://g… 2025-06-20… "After…
 7 <NA>      Andr… Nicho… Moto… "The Motor… http… https://c… 2025-06-05… "Why y…
 8 <NA>      Slas… msmash Game… "GameStop … http… https://a… 2025-06-13… "Cohen…
 9 <NA>      Slas… Edito… Nint… "TweakTown… http… https://a… 2025-06-07… "Tweak…
10 <NA>      Kota… Ethan… Stat… "Imagine y… http… https://i… 2025-06-05… "Imagi…
# ℹ 90 more rows
